ISSS608-VAA - Take-home Exercise 3: Be Weatherwise or Otherwise
…
Finally, the average temperature per year is obtained and added to the data set as a new column labelled as “MonthAvg.”

Temps$Year <- as.factor(Temps$Year)

average_temps <- Temps %>%
  group_by(Year) %>%
  summarize(MonthAvg = mean(MeanTemp, na.rm = TRUE))

Temps <- left_join(Temps, average_temps, by = "Year")

Temps$Year <- as.integer(as.character(Temps$Year))
Temps$MonthAvg <- round(Temps$MonthAvg, 1)
Temps

# A tibble: 150 × 4
    Year   Day MeanTemp MonthAvg
   <int> <dbl>    <dbl>    <dbl>
 1  1983     1     27.1     27.2
 2  1983     2     26.6     27.2
 3  1983     3     26.7     27.2
 4  1983     4     27.3     27.2
 5  1983     5     26.1     27.2
 6  1983     6     27.6     27.2
 7  1983     7     28.7     27.2
 8  1983     8     27.6     27.2
 9  1983     9     25.9     27.2
10  1983    10     25.8     27.2
# ℹ 140 more rows
…
